// Jest Snapshot v1, https://goo.gl/fbAQLP

exports[`AccountListItem renders correctly 1`] = `
ShallowWrapper {
  "length": 1,
  Symbol(enzyme.__root__): [Circular],
  Symbol(enzyme.__unrendered__): <AccountListItem
    account={
      Object {
        "email": "admin@example.com",
        "role": "admin",
        "username": "test",
      }
    }
    classes={
      Object {
        "firstCell": "AccountListItem-firstCell-1",
        "icon": "AccountListItem-icon-5",
        "iconButton": "AccountListItem-iconButton-4",
        "lastCell": "AccountListItem-lastCell-2",
        "role": "AccountListItem-role-3",
      }
    }
    onDelete={[Function]}
    onEdit={[Function]}
    onPassChange={[Function]}
  />,
  Symbol(enzyme.__renderer__): Object {
    "batchedUpdates": [Function],
    "getNode": [Function],
    "render": [Function],
    "simulateEvent": [Function],
    "unmount": [Function],
  },
  Symbol(enzyme.__node__): Object {
    "instance": null,
    "key": undefined,
    "nodeType": "class",
    "props": Object {
      "children": Array [
        <WithStyles(TableCell)
          className="AccountListItem-firstCell-1"
        >
          test
        </WithStyles(TableCell)>,
        <WithStyles(TableCell)
          className="AccountListItem-role-3"
        >
          admin
        </WithStyles(TableCell)>,
        <WithStyles(TableCell)>
          admin@example.com
        </WithStyles(TableCell)>,
        <WithStyles(TableCell)
          className="AccountListItem-lastCell-2"
        >
          <WithStyles(IconButton)
            className="AccountListItem-iconButton-4"
            name="edit"
            onClick={[Function]}
          >
            <pure(Edit)
              className="AccountListItem-icon-5"
            />
          </WithStyles(IconButton)>
          <WithStyles(IconButton)
            className="AccountListItem-iconButton-4"
            name="pass"
            onClick={[Function]}
          >
            <pure(VpnKey)
              className="AccountListItem-icon-5"
            />
          </WithStyles(IconButton)>
          <WithStyles(IconButton)
            className="AccountListItem-iconButton-4"
            name="delete"
            onClick={[Function]}
          >
            <pure(Delete)
              className="AccountListItem-icon-5"
            />
          </WithStyles(IconButton)>
        </WithStyles(TableCell)>,
      ],
    },
    "ref": null,
    "rendered": Array [
      Object {
        "instance": null,
        "key": undefined,
        "nodeType": "class",
        "props": Object {
          "children": "test",
          "className": "AccountListItem-firstCell-1",
        },
        "ref": null,
        "rendered": "test",
        "type": [Function],
      },
      Object {
        "instance": null,
        "key": undefined,
        "nodeType": "class",
        "props": Object {
          "children": "admin",
          "className": "AccountListItem-role-3",
        },
        "ref": null,
        "rendered": "admin",
        "type": [Function],
      },
      Object {
        "instance": null,
        "key": undefined,
        "nodeType": "class",
        "props": Object {
          "children": "admin@example.com",
        },
        "ref": null,
        "rendered": "admin@example.com",
        "type": [Function],
      },
      Object {
        "instance": null,
        "key": undefined,
        "nodeType": "class",
        "props": Object {
          "children": Array [
            <WithStyles(IconButton)
              className="AccountListItem-iconButton-4"
              name="edit"
              onClick={[Function]}
            >
              <pure(Edit)
                className="AccountListItem-icon-5"
              />
            </WithStyles(IconButton)>,
            <WithStyles(IconButton)
              className="AccountListItem-iconButton-4"
              name="pass"
              onClick={[Function]}
            >
              <pure(VpnKey)
                className="AccountListItem-icon-5"
              />
            </WithStyles(IconButton)>,
            <WithStyles(IconButton)
              className="AccountListItem-iconButton-4"
              name="delete"
              onClick={[Function]}
            >
              <pure(Delete)
                className="AccountListItem-icon-5"
              />
            </WithStyles(IconButton)>,
          ],
          "className": "AccountListItem-lastCell-2",
        },
        "ref": null,
        "rendered": Array [
          Object {
            "instance": null,
            "key": undefined,
            "nodeType": "class",
            "props": Object {
              "children": <pure(Edit)
                className="AccountListItem-icon-5"
              />,
              "className": "AccountListItem-iconButton-4",
              "name": "edit",
              "onClick": [Function],
            },
            "ref": null,
            "rendered": Object {
              "instance": null,
              "key": undefined,
              "nodeType": "class",
              "props": Object {
                "className": "AccountListItem-icon-5",
              },
              "ref": null,
              "rendered": null,
              "type": [Function],
            },
            "type": [Function],
          },
          Object {
            "instance": null,
            "key": undefined,
            "nodeType": "class",
            "props": Object {
              "children": <pure(VpnKey)
                className="AccountListItem-icon-5"
              />,
              "className": "AccountListItem-iconButton-4",
              "name": "pass",
              "onClick": [Function],
            },
            "ref": null,
            "rendered": Object {
              "instance": null,
              "key": undefined,
              "nodeType": "class",
              "props": Object {
                "className": "AccountListItem-icon-5",
              },
              "ref": null,
              "rendered": null,
              "type": [Function],
            },
            "type": [Function],
          },
          Object {
            "instance": null,
            "key": undefined,
            "nodeType": "class",
            "props": Object {
              "children": <pure(Delete)
                className="AccountListItem-icon-5"
              />,
              "className": "AccountListItem-iconButton-4",
              "name": "delete",
              "onClick": [Function],
            },
            "ref": null,
            "rendered": Object {
              "instance": null,
              "key": undefined,
              "nodeType": "class",
              "props": Object {
                "className": "AccountListItem-icon-5",
              },
              "ref": null,
              "rendered": null,
              "type": [Function],
            },
            "type": [Function],
          },
        ],
        "type": [Function],
      },
    ],
    "type": [Function],
  },
  Symbol(enzyme.__nodes__): Array [
    Object {
      "instance": null,
      "key": undefined,
      "nodeType": "class",
      "props": Object {
        "children": Array [
          <WithStyles(TableCell)
            className="AccountListItem-firstCell-1"
          >
            test
          </WithStyles(TableCell)>,
          <WithStyles(TableCell)
            className="AccountListItem-role-3"
          >
            admin
          </WithStyles(TableCell)>,
          <WithStyles(TableCell)>
            admin@example.com
          </WithStyles(TableCell)>,
          <WithStyles(TableCell)
            className="AccountListItem-lastCell-2"
          >
            <WithStyles(IconButton)
              className="AccountListItem-iconButton-4"
              name="edit"
              onClick={[Function]}
            >
              <pure(Edit)
                className="AccountListItem-icon-5"
              />
            </WithStyles(IconButton)>
            <WithStyles(IconButton)
              className="AccountListItem-iconButton-4"
              name="pass"
              onClick={[Function]}
            >
              <pure(VpnKey)
                className="AccountListItem-icon-5"
              />
            </WithStyles(IconButton)>
            <WithStyles(IconButton)
              className="AccountListItem-iconButton-4"
              name="delete"
              onClick={[Function]}
            >
              <pure(Delete)
                className="AccountListItem-icon-5"
              />
            </WithStyles(IconButton)>
          </WithStyles(TableCell)>,
        ],
      },
      "ref": null,
      "rendered": Array [
        Object {
          "instance": null,
          "key": undefined,
          "nodeType": "class",
          "props": Object {
            "children": "test",
            "className": "AccountListItem-firstCell-1",
          },
          "ref": null,
          "rendered": "test",
          "type": [Function],
        },
        Object {
          "instance": null,
          "key": undefined,
          "nodeType": "class",
          "props": Object {
            "children": "admin",
            "className": "AccountListItem-role-3",
          },
          "ref": null,
          "rendered": "admin",
          "type": [Function],
        },
        Object {
          "instance": null,
          "key": undefined,
          "nodeType": "class",
          "props": Object {
            "children": "admin@example.com",
          },
          "ref": null,
          "rendered": "admin@example.com",
          "type": [Function],
        },
        Object {
          "instance": null,
          "key": undefined,
          "nodeType": "class",
          "props": Object {
            "children": Array [
              <WithStyles(IconButton)
                className="AccountListItem-iconButton-4"
                name="edit"
                onClick={[Function]}
              >
                <pure(Edit)
                  className="AccountListItem-icon-5"
                />
              </WithStyles(IconButton)>,
              <WithStyles(IconButton)
                className="AccountListItem-iconButton-4"
                name="pass"
                onClick={[Function]}
              >
                <pure(VpnKey)
                  className="AccountListItem-icon-5"
                />
              </WithStyles(IconButton)>,
              <WithStyles(IconButton)
                className="AccountListItem-iconButton-4"
                name="delete"
                onClick={[Function]}
              >
                <pure(Delete)
                  className="AccountListItem-icon-5"
                />
              </WithStyles(IconButton)>,
            ],
            "className": "AccountListItem-lastCell-2",
          },
          "ref": null,
          "rendered": Array [
            Object {
              "instance": null,
              "key": undefined,
              "nodeType": "class",
              "props": Object {
                "children": <pure(Edit)
                  className="AccountListItem-icon-5"
                />,
                "className": "AccountListItem-iconButton-4",
                "name": "edit",
                "onClick": [Function],
              },
              "ref": null,
              "rendered": Object {
                "instance": null,
                "key": undefined,
                "nodeType": "class",
                "props": Object {
                  "className": "AccountListItem-icon-5",
                },
                "ref": null,
                "rendered": null,
                "type": [Function],
              },
              "type": [Function],
            },
            Object {
              "instance": null,
              "key": undefined,
              "nodeType": "class",
              "props": Object {
                "children": <pure(VpnKey)
                  className="AccountListItem-icon-5"
                />,
                "className": "AccountListItem-iconButton-4",
                "name": "pass",
                "onClick": [Function],
              },
              "ref": null,
              "rendered": Object {
                "instance": null,
                "key": undefined,
                "nodeType": "class",
                "props": Object {
                  "className": "AccountListItem-icon-5",
                },
                "ref": null,
                "rendered": null,
                "type": [Function],
              },
              "type": [Function],
            },
            Object {
              "instance": null,
              "key": undefined,
              "nodeType": "class",
              "props": Object {
                "children": <pure(Delete)
                  className="AccountListItem-icon-5"
                />,
                "className": "AccountListItem-iconButton-4",
                "name": "delete",
                "onClick": [Function],
              },
              "ref": null,
              "rendered": Object {
                "instance": null,
                "key": undefined,
                "nodeType": "class",
                "props": Object {
                  "className": "AccountListItem-icon-5",
                },
                "ref": null,
                "rendered": null,
                "type": [Function],
              },
              "type": [Function],
            },
          ],
          "type": [Function],
        },
      ],
      "type": [Function],
    },
  ],
  Symbol(enzyme.__options__): Object {
    "adapter": ReactSixteenAdapter {
      "options": Object {
        "enableComponentDidUpdateOnSetState": true,
      },
    },
  },
}
`;
